{
    "description": "",
    "materialType": "Materials/Types/StandardPBR.materialtype",
    "parentMaterial": "",
    "propertyLayoutVersion": 3,
    "properties": {
        "baseColor": {
            "textureMap": "Assets/Textures/Numbers/5.png"
        }
    }
}