{
    "description": "",
    "materialType": "Materials/Types/StandardPBR.materialtype",
    "parentMaterial": "",
    "propertyLayoutVersion": 3,
    "properties": {
        "baseColor": {
            "color": [
                0.0032806897070258856,
                0.2236057072877884,
                0.0032806897070258856,
                1.0
            ]
        },
        "emissive": {
            "color": [
                0.0,
                0.0,
                0.0,
                1.0
            ]
        },
        "opacity": {
            "factor": 1.0
        },
        "roughness": {
            "factor": 0.8999999761581421
        }
    }
}