{
    "gem_name": "O3DE-Jam",
    "display_name": "O3DE-Jam",
    "license": "What license O3DE-Jam uses goes here: i.e. https://opensource.org/licenses/MIT",
    "origin": "The primary repo for O3DE-Jam goes here: i.e. http://www.mydomain.com",
    "type": "Code",
    "summary": "A short description of O3DE-Jam.",
    "canonical_tags": [
        "Gem"
    ],
    "user_tags": [
        "O3DE-Jam"
    ],
    "icon_path": "preview.png",
    "requirements": ""
}
