{
    "ContainerEntity": {
        "Id": "ContainerEntity",
        "Name": "rocksmallflat",
        "Components": {
            "Component_[13663061356709115756]": {
                "$type": "EditorPrefabComponent",
                "Id": 13663061356709115756
            },
            "Component_[14786039923781354077]": {
                "$type": "EditorPendingCompositionComponent",
                "Id": 14786039923781354077
            },
            "Component_[16870650640049711836]": {
                "$type": "EditorOnlyEntityComponent",
                "Id": 16870650640049711836
            },
            "Component_[17329763992024911397]": {
                "$type": "EditorEntityIconComponent",
                "Id": 17329763992024911397
            },
            "Component_[17506708341943328787]": {
                "$type": "SelectionComponent",
                "Id": 17506708341943328787
            },
            "Component_[17818453838890818390]": {
                "$type": "EditorLockComponent",
                "Id": 17818453838890818390
            },
            "Component_[3363848958841350553]": {
                "$type": "EditorEntitySortComponent",
                "Id": 3363848958841350553
            },
            "Component_[4603533674793528184]": {
                "$type": "EditorVisibilityComponent",
                "Id": 4603533674793528184
            },
            "Component_[6282388567474339828]": {
                "$type": "EditorDisabledCompositionComponent",
                "Id": 6282388567474339828
            },
            "Component_[7724107005699531594]": {
                "$type": "EditorInspectorComponent",
                "Id": 7724107005699531594
            },
            "Component_[95517842757180775]": {
                "$type": "{27F1E1A1-8D9D-4C3B-BD3A-AFB9762449C0} TransformComponent",
                "Id": 95517842757180775,
                "Parent Entity": ""
            }
        }
    },
    "Entities": {
        "Entity_[1016862292752501]": {
            "Id": "Entity_[1016862292752501]",
            "Name": "rocksmallflat",
            "Components": {
                "Component_[12509334245062084682]": {
                    "$type": "EditorDisabledCompositionComponent",
                    "Id": 12509334245062084682
                },
                "Component_[1356572232542950498]": {
                    "$type": "EditorEntityIconComponent",
                    "Id": 1356572232542950498
                },
                "Component_[14848671916535926573]": {
                    "$type": "EditorLockComponent",
                    "Id": 14848671916535926573
                },
                "Component_[14921652575442470007]": {
                    "$type": "EditorOnlyEntityComponent",
                    "Id": 14921652575442470007
                },
                "Component_[16225197025143958979]": {
                    "$type": "AZ::Render::EditorMeshComponent",
                    "Id": 16225197025143958979,
                    "Controller": {
                        "Configuration": {
                            "ModelAsset": {
                                "assetId": {
                                    "guid": "{58B0D6C2-2D09-58A9-A93F-89A18D2383E9}",
                                    "subId": 282091156
                                },
                                "assetHint": "assets/models/rocks/rocksmallflat.azmodel"
                            }
                        }
                    }
                },
                "Component_[2261375882013367622]": {
                    "$type": "EditorVisibilityComponent",
                    "Id": 2261375882013367622
                },
                "Component_[3311795111162362302]": {
                    "$type": "SelectionComponent",
                    "Id": 3311795111162362302
                },
                "Component_[3864052771663022291]": {
                    "$type": "EditorPendingCompositionComponent",
                    "Id": 3864052771663022291
                },
                "Component_[5732975605456422238]": {
                    "$type": "EditorInspectorComponent",
                    "Id": 5732975605456422238,
                    "ComponentOrderEntryArray": [
                        {
                            "ComponentId": 6079068605519017803
                        },
                        {
                            "ComponentId": 16225197025143958979,
                            "SortIndex": 1
                        }
                    ]
                },
                "Component_[6079068605519017803]": {
                    "$type": "{27F1E1A1-8D9D-4C3B-BD3A-AFB9762449C0} TransformComponent",
                    "Id": 6079068605519017803,
                    "Parent Entity": "ContainerEntity",
                    "Transform Data": {
                        "UniformScale": 0.20000000298023224
                    }
                },
                "Component_[6706736034818734979]": {
                    "$type": "EditorEntitySortComponent",
                    "Id": 6706736034818734979
                }
            }
        }
    }
}