{
    "ContainerEntity": {
        "Id": "ContainerEntity",
        "Name": "MyTree",
        "Components": {
            "Component_[13216683313238694420]": {
                "$type": "EditorPendingCompositionComponent",
                "Id": 13216683313238694420
            },
            "Component_[15351210045824657904]": {
                "$type": "EditorVisibilityComponent",
                "Id": 15351210045824657904
            },
            "Component_[2814175560651654597]": {
                "$type": "EditorPrefabComponent",
                "Id": 2814175560651654597
            },
            "Component_[4149520556226000951]": {
                "$type": "EditorEntityIconComponent",
                "Id": 4149520556226000951
            },
            "Component_[4188023829293487698]": {
                "$type": "EditorEntitySortComponent",
                "Id": 4188023829293487698
            },
            "Component_[4775702905946643916]": {
                "$type": "EditorDisabledCompositionComponent",
                "Id": 4775702905946643916
            },
            "Component_[5210489627525304570]": {
                "$type": "{27F1E1A1-8D9D-4C3B-BD3A-AFB9762449C0} TransformComponent",
                "Id": 5210489627525304570,
                "Parent Entity": ""
            },
            "Component_[5354222031087436938]": {
                "$type": "SelectionComponent",
                "Id": 5354222031087436938
            },
            "Component_[541355606156222701]": {
                "$type": "EditorLockComponent",
                "Id": 541355606156222701
            },
            "Component_[6870509629035431314]": {
                "$type": "EditorInspectorComponent",
                "Id": 6870509629035431314
            },
            "Component_[8511439521134613833]": {
                "$type": "EditorOnlyEntityComponent",
                "Id": 8511439521134613833
            }
        }
    },
    "Entities": {
        "Entity_[382714081310]": {
            "Id": "Entity_[382714081310]",
            "Name": "Entity1",
            "Components": {
                "Component_[115105604061288291]": {
                    "$type": "EditorMaterialComponent",
                    "Id": 115105604061288291,
                    "materialSlots": [
                        {
                            "id": {
                                "materialSlotStableId": 1803671422
                            }
                        },
                        {
                            "id": {
                                "materialSlotStableId": 1803671422
                            }
                        },
                        {
                            "id": {
                                "materialSlotStableId": 1803671422
                            }
                        }
                    ],
                    "materialSlotsByLod": [
                        [
                            {
                                "id": {
                                    "lodIndex": 0,
                                    "materialSlotStableId": 1803671422
                                }
                            }
                        ],
                        [
                            {
                                "id": {
                                    "lodIndex": 0,
                                    "materialSlotStableId": 1803671422
                                }
                            }
                        ],
                        [
                            {
                                "id": {
                                    "lodIndex": 0,
                                    "materialSlotStableId": 1803671422
                                }
                            }
                        ]
                    ]
                },
                "Component_[11691184732230495055]": {
                    "$type": "EditorEntityIconComponent",
                    "Id": 11691184732230495055
                },
                "Component_[13198934036345297523]": {
                    "$type": "SelectionComponent",
                    "Id": 13198934036345297523
                },
                "Component_[13843507074105073126]": {
                    "$type": "{27F1E1A1-8D9D-4C3B-BD3A-AFB9762449C0} TransformComponent",
                    "Id": 13843507074105073126,
                    "Parent Entity": "ContainerEntity"
                },
                "Component_[1694391457006402005]": {
                    "$type": "EditorOnlyEntityComponent",
                    "Id": 1694391457006402005
                },
                "Component_[17556470949983302862]": {
                    "$type": "EditorDisabledCompositionComponent",
                    "Id": 17556470949983302862
                },
                "Component_[17746446796261881133]": {
                    "$type": "AZ::Render::EditorMeshComponent",
                    "Id": 17746446796261881133,
                    "Controller": {
                        "Configuration": {
                            "ModelAsset": {
                                "assetId": {
                                    "guid": "{8F19FB6D-DF18-5CC0-B921-6755089004D7}",
                                    "subId": 275006192
                                },
                                "assetHint": "materialeditor/viewportmodels/beveledcube.azmodel"
                            }
                        }
                    }
                },
                "Component_[17867515444636995540]": {
                    "$type": "EditorLockComponent",
                    "Id": 17867515444636995540
                },
                "Component_[4481522279821119142]": {
                    "$type": "EditorEntitySortComponent",
                    "Id": 4481522279821119142
                },
                "Component_[7566496385501964526]": {
                    "$type": "EditorVisibilityComponent",
                    "Id": 7566496385501964526
                },
                "Component_[8692468157265450509]": {
                    "$type": "EditorInspectorComponent",
                    "Id": 8692468157265450509,
                    "ComponentOrderEntryArray": [
                        {
                            "ComponentId": 13843507074105073126
                        },
                        {
                            "ComponentId": 17746446796261881133,
                            "SortIndex": 1
                        },
                        {
                            "ComponentId": 115105604061288291,
                            "SortIndex": 2
                        }
                    ]
                },
                "Component_[9217046587967817930]": {
                    "$type": "EditorPendingCompositionComponent",
                    "Id": 9217046587967817930
                }
            }
        }
    }
}