{
    "ContainerEntity": {
        "Id": "ContainerEntity",
        "Name": "paper_code",
        "Components": {
            "Component_[10057254194292686866]": {
                "$type": "EditorPendingCompositionComponent",
                "Id": 10057254194292686866
            },
            "Component_[10571747973485383626]": {
                "$type": "EditorEntitySortComponent",
                "Id": 10571747973485383626
            },
            "Component_[10752733326557504978]": {
                "$type": "EditorDisabledCompositionComponent",
                "Id": 10752733326557504978
            },
            "Component_[1080989865768637475]": {
                "$type": "EditorPrefabComponent",
                "Id": 1080989865768637475
            },
            "Component_[11204823617686554005]": {
                "$type": "EditorOnlyEntityComponent",
                "Id": 11204823617686554005
            },
            "Component_[11340926748914109304]": {
                "$type": "EditorInspectorComponent",
                "Id": 11340926748914109304
            },
            "Component_[12536150688785157567]": {
                "$type": "{27F1E1A1-8D9D-4C3B-BD3A-AFB9762449C0} TransformComponent",
                "Id": 12536150688785157567,
                "Parent Entity": ""
            },
            "Component_[2012807238225421573]": {
                "$type": "EditorEntityIconComponent",
                "Id": 2012807238225421573
            },
            "Component_[5550466782569834376]": {
                "$type": "EditorLockComponent",
                "Id": 5550466782569834376
            },
            "Component_[9274681561037184139]": {
                "$type": "SelectionComponent",
                "Id": 9274681561037184139
            },
            "Component_[9873009222858178612]": {
                "$type": "EditorVisibilityComponent",
                "Id": 9873009222858178612
            }
        }
    },
    "Entities": {
        "Entity_[224348339650897]": {
            "Id": "Entity_[224348339650897]",
            "Name": "paper_code",
            "Components": {
                "Component_[10258745629555357463]": {
                    "$type": "EditorLockComponent",
                    "Id": 10258745629555357463
                },
                "Component_[10789930696094643354]": {
                    "$type": "EditorEntitySortComponent",
                    "Id": 10789930696094643354
                },
                "Component_[13859359950307075386]": {
                    "$type": "EditorPendingCompositionComponent",
                    "Id": 13859359950307075386
                },
                "Component_[1441640790204714663]": {
                    "$type": "EditorVisibilityComponent",
                    "Id": 1441640790204714663
                },
                "Component_[14984047172702417024]": {
                    "$type": "SelectionComponent",
                    "Id": 14984047172702417024
                },
                "Component_[15512126007036180277]": {
                    "$type": "{27F1E1A1-8D9D-4C3B-BD3A-AFB9762449C0} TransformComponent",
                    "Id": 15512126007036180277,
                    "Parent Entity": "ContainerEntity",
                    "Transform Data": {
                        "UniformScale": 0.10000000149011612
                    }
                },
                "Component_[17525551535936051799]": {
                    "$type": "AZ::Render::EditorMeshComponent",
                    "Id": 17525551535936051799,
                    "Controller": {
                        "Configuration": {
                            "ModelAsset": {
                                "assetId": {
                                    "guid": "{55A882B9-8789-51B0-9C81-A67541991090}",
                                    "subId": 281808875
                                },
                                "assetHint": "assets/models/mesh_paper_code.azmodel"
                            }
                        }
                    }
                },
                "Component_[17739627719830449864]": {
                    "$type": "EditorMaterialComponent",
                    "Id": 17739627719830449864,
                    "Controller": {
                        "Configuration": {
                            "materials": [
                                {
                                    "Key": {
                                        "materialSlotStableId": 1360820129
                                    },
                                    "Value": {
                                        "MaterialAsset": {
                                            "assetId": {
                                                "guid": "{9F66B4DC-6023-5139-9CC8-70CEF2BAEC15}"
                                            },
                                            "assetHint": "assets/materials/paper_code.azmaterial"
                                        }
                                    }
                                }
                            ]
                        }
                    },
                    "materialSlots": [
                        {
                            "id": {
                                "materialSlotStableId": 1360820129
                            },
                            "materialAsset": {
                                "assetId": {
                                    "guid": "{9F66B4DC-6023-5139-9CC8-70CEF2BAEC15}"
                                },
                                "assetHint": "assets/materials/paper_code.azmaterial"
                            }
                        }
                    ],
                    "materialSlotsByLod": [
                        [
                            {
                                "id": {
                                    "lodIndex": 0,
                                    "materialSlotStableId": 1360820129
                                }
                            }
                        ]
                    ]
                },
                "Component_[7209800357968910946]": {
                    "$type": "EditorDisabledCompositionComponent",
                    "Id": 7209800357968910946
                },
                "Component_[8015500420986679067]": {
                    "$type": "EditorOnlyEntityComponent",
                    "Id": 8015500420986679067
                },
                "Component_[8517804652877749236]": {
                    "$type": "EditorEntityIconComponent",
                    "Id": 8517804652877749236
                },
                "Component_[8690647532261335570]": {
                    "$type": "EditorInspectorComponent",
                    "Id": 8690647532261335570,
                    "ComponentOrderEntryArray": [
                        {
                            "ComponentId": 15512126007036180277
                        },
                        {
                            "ComponentId": 17525551535936051799,
                            "SortIndex": 1
                        },
                        {
                            "ComponentId": 17739627719830449864,
                            "SortIndex": 2
                        }
                    ]
                }
            }
        }
    }
}