{
    "ContainerEntity": {
        "Id": "ContainerEntity",
        "Name": "Player3C",
        "Components": {
            "Component_[11324508406885424729]": {
                "$type": "EditorVisibilityComponent",
                "Id": 11324508406885424729
            },
            "Component_[11404431410484233573]": {
                "$type": "EditorInspectorComponent",
                "Id": 11404431410484233573
            },
            "Component_[11979520103356679991]": {
                "$type": "EditorDisabledCompositionComponent",
                "Id": 11979520103356679991
            },
            "Component_[12795925119473945364]": {
                "$type": "SelectionComponent",
                "Id": 12795925119473945364
            },
            "Component_[1569767927827580658]": {
                "$type": "EditorPrefabComponent",
                "Id": 1569767927827580658
            },
            "Component_[17189748482057887780]": {
                "$type": "EditorOnlyEntityComponent",
                "Id": 17189748482057887780
            },
            "Component_[3066674344683467594]": {
                "$type": "EditorEntitySortComponent",
                "Id": 3066674344683467594
            },
            "Component_[3549459766218219731]": {
                "$type": "EditorEntityIconComponent",
                "Id": 3549459766218219731
            },
            "Component_[4713305568385854627]": {
                "$type": "EditorLockComponent",
                "Id": 4713305568385854627
            },
            "Component_[7886809688951090219]": {
                "$type": "EditorPendingCompositionComponent",
                "Id": 7886809688951090219
            },
            "Component_[8838970606274703370]": {
                "$type": "{27F1E1A1-8D9D-4C3B-BD3A-AFB9762449C0} TransformComponent",
                "Id": 8838970606274703370,
                "Parent Entity": ""
            }
        }
    },
    "Entities": {
        "Entity_[1578995783603]": {
            "Id": "Entity_[1578995783603]",
            "Name": "Player",
            "Components": {
                "Component_[10188531141743615329]": {
                    "$type": "EditorActorComponent",
                    "Id": 10188531141743615329,
                    "AttachmentTarget": ""
                },
                "Component_[11325879146966914658]": {
                    "$type": "EditorDisabledCompositionComponent",
                    "Id": 11325879146966914658
                },
                "Component_[12014459257487964995]": {
                    "$type": "EditorLockComponent",
                    "Id": 12014459257487964995
                },
                "Component_[13157018697088334311]": {
                    "$type": "SelectionComponent",
                    "Id": 13157018697088334311
                },
                "Component_[13591740663512272869]": {
                    "$type": "EditorSimpleMotionComponent",
                    "Id": 13591740663512272869,
                    "PreviewInEditor": true
                },
                "Component_[17001943181615408308]": {
                    "$type": "EditorCharacterControllerComponent",
                    "Id": 17001943181615408308,
                    "Configuration": {
                        "entityId": "",
                        "Material": {
                            "MaterialIds": [
                                {}
                            ]
                        }
                    },
                    "ShapeConfig": {
                        "Capsule": {
                            "Height": 1.7999999523162842
                        }
                    }
                },
                "Component_[17138407535964073468]": {
                    "$type": "{27F1E1A1-8D9D-4C3B-BD3A-AFB9762449C0} TransformComponent",
                    "Id": 17138407535964073468,
                    "Parent Entity": "ContainerEntity"
                },
                "Component_[18137761940454410080]": {
                    "$type": "EditorPendingCompositionComponent",
                    "Id": 18137761940454410080
                },
                "Component_[18155220812156952581]": {
                    "$type": "EditorCharacterGameplayComponent",
                    "Id": 18155220812156952581
                },
                "Component_[2860747961439489279]": {
                    "$type": "EditorOnlyEntityComponent",
                    "Id": 2860747961439489279
                },
                "Component_[4290009314558507113]": {
                    "$type": "EditorEntitySortComponent",
                    "Id": 4290009314558507113,
                    "ChildEntityOrderEntryArray": [
                        {
                            "EntityId": "Entity_[1583290750899]"
                        }
                    ]
                },
                "Component_[5253718454439939742]": {
                    "$type": "EditorEntityIconComponent",
                    "Id": 5253718454439939742
                },
                "Component_[5369362138359204097]": {
                    "$type": "EditorInspectorComponent",
                    "Id": 5369362138359204097,
                    "ComponentOrderEntryArray": [
                        {
                            "ComponentId": 17138407535964073468
                        },
                        {
                            "ComponentId": 9747902114065202019,
                            "SortIndex": 1
                        },
                        {
                            "ComponentId": 9958030670258876103,
                            "SortIndex": 2
                        },
                        {
                            "ComponentId": 10188531141743615329,
                            "SortIndex": 3
                        },
                        {
                            "ComponentId": 13591740663512272869,
                            "SortIndex": 4
                        },
                        {
                            "ComponentId": 6877751683100808033,
                            "SortIndex": 5
                        },
                        {
                            "ComponentId": 17001943181615408308,
                            "SortIndex": 6
                        },
                        {
                            "ComponentId": 18155220812156952581,
                            "SortIndex": 7
                        }
                    ]
                },
                "Component_[6489417469824399211]": {
                    "$type": "EditorVisibilityComponent",
                    "Id": 6489417469824399211
                },
                "Component_[6877751683100808033]": {
                    "$type": "EditorScriptCanvasComponent",
                    "Id": 6877751683100808033,
                    "m_name": "PlayerController",
                    "m_assetHolder": {
                        "m_asset": {
                            "assetId": {
                                "guid": "{B0126382-F977-50D6-9443-3784F85FBFE4}"
                            },
                            "assetHint": "scriptcanvas/playercontroller.scriptcanvas"
                        }
                    },
                    "runtimeDataIsValid": true,
                    "runtimeDataOverrides": {
                        "source": {
                            "assetId": {
                                "guid": "{B0126382-F977-50D6-9443-3784F85FBFE4}"
                            },
                            "assetHint": "scriptcanvas/playercontroller.scriptcanvas"
                        },
                        "variables": [
                            {
                                "Datum": {
                                    "scriptCanvasType": {
                                        "m_type": 3
                                    },
                                    "isNullPointer": false,
                                    "$type": "double",
                                    "value": 1.0
                                },
                                "VariableId": {
                                    "m_id": "{44CE8B8F-EDB6-41C3-90E3-820CD30CA52D}"
                                },
                                "VariableName": "RotateSpeed",
                                "InitialValueSource": 1
                            },
                            {
                                "Datum": {
                                    "scriptCanvasType": {
                                        "m_type": 3
                                    },
                                    "isNullPointer": false,
                                    "$type": "double",
                                    "value": 1.0
                                },
                                "VariableId": {
                                    "m_id": "{BCA4A123-4869-4C24-80B2-C2EA1C77C2BF}"
                                },
                                "VariableName": "WalkSpeed",
                                "InitialValueSource": 1
                            }
                        ],
                        "overrides": [
                            {
                                "Datum": {
                                    "scriptCanvasType": {
                                        "m_type": 3
                                    },
                                    "isNullPointer": false,
                                    "$type": "double",
                                    "value": -1.0
                                },
                                "InputControlVisibility": {
                                    "Value": 850104567
                                },
                                "VariableId": {
                                    "m_id": "{44CE8B8F-EDB6-41C3-90E3-820CD30CA52D}"
                                },
                                "VariableName": "RotateSpeed",
                                "InitialValueSource": 1
                            },
                            {
                                "Datum": {
                                    "scriptCanvasType": {
                                        "m_type": 3
                                    },
                                    "isNullPointer": false,
                                    "$type": "double",
                                    "value": 5.0
                                },
                                "InputControlVisibility": {
                                    "Value": 850104567
                                },
                                "VariableId": {
                                    "m_id": "{BCA4A123-4869-4C24-80B2-C2EA1C77C2BF}"
                                },
                                "VariableName": "WalkSpeed",
                                "InitialValueSource": 1
                            }
                        ]
                    }
                },
                "Component_[9747902114065202019]": {
                    "$type": "GenericComponentWrapper",
                    "Id": 9747902114065202019,
                    "m_template": {
                        "$type": "InputConfigurationComponent",
                        "Input Event Bindings": {
                            "assetId": {
                                "guid": "{65878C59-19C8-507F-B361-C0D4B90C15F3}"
                            },
                            "assetHint": "thirdpersoncamera.inputbindings"
                        }
                    }
                },
                "Component_[9958030670258876103]": {
                    "$type": "GenericComponentWrapper",
                    "Id": 9958030670258876103,
                    "m_template": {
                        "$type": "InputConfigurationComponent",
                        "Input Event Bindings": {
                            "assetId": {
                                "guid": "{0E98ABD6-E619-5C16-9B27-D9096E4B159A}"
                            },
                            "assetHint": "thirdpersonmovement.inputbindings"
                        }
                    }
                }
            }
        },
        "Entity_[1583290750899]": {
            "Id": "Entity_[1583290750899]",
            "Name": "Camera",
            "Components": {
                "Component_[1117076470032305379]": {
                    "$type": "EditorDisabledCompositionComponent",
                    "Id": 1117076470032305379
                },
                "Component_[11434727498502280887]": {
                    "$type": "EditorEntityIconComponent",
                    "Id": 11434727498502280887
                },
                "Component_[12179691123829439070]": {
                    "$type": "EditorOnlyEntityComponent",
                    "Id": 12179691123829439070
                },
                "Component_[12719862716555576066]": {
                    "$type": "EditorLockComponent",
                    "Id": 12719862716555576066
                },
                "Component_[13225639844128087802]": {
                    "$type": "{CA11DA46-29FF-4083-B5F6-E02C3A8C3A3D} EditorCameraComponent",
                    "Id": 13225639844128087802,
                    "Controller": {
                        "Configuration": {
                            "EditorEntityId": 7616327691310581144
                        }
                    }
                },
                "Component_[13605485331403166794]": {
                    "$type": "EditorInspectorComponent",
                    "Id": 13605485331403166794
                },
                "Component_[13729150715566089692]": {
                    "$type": "EditorScriptCanvasComponent",
                    "Id": 13729150715566089692,
                    "m_name": "PlayerCameraController",
                    "m_assetHolder": {
                        "m_asset": {
                            "assetId": {
                                "guid": "{A49593DA-95FE-512A-A9BC-3F155D41EE20}"
                            },
                            "assetHint": "scriptcanvas/playercameracontroller.scriptcanvas"
                        }
                    },
                    "runtimeDataIsValid": true,
                    "runtimeDataOverrides": {
                        "source": {
                            "assetId": {
                                "guid": "{A49593DA-95FE-512A-A9BC-3F155D41EE20}"
                            },
                            "assetHint": "scriptcanvas/playercameracontroller.scriptcanvas"
                        },
                        "variables": [
                            {
                                "Datum": {
                                    "scriptCanvasType": {
                                        "m_type": 3
                                    },
                                    "isNullPointer": false,
                                    "$type": "double",
                                    "value": -1.0
                                },
                                "VariableId": {
                                    "m_id": "{D845A89D-6F10-4E56-A90E-EB573AB7BA65}"
                                },
                                "VariableName": "RotateSpeed",
                                "InitialValueSource": 1
                            }
                        ],
                        "overrides": [
                            {
                                "Datum": {
                                    "scriptCanvasType": {
                                        "m_type": 3
                                    },
                                    "isNullPointer": false,
                                    "$type": "double",
                                    "value": -0.7
                                },
                                "InputControlVisibility": {
                                    "Value": 850104567
                                },
                                "VariableId": {
                                    "m_id": "{D845A89D-6F10-4E56-A90E-EB573AB7BA65}"
                                },
                                "VariableName": "RotateSpeed",
                                "InitialValueSource": 1
                            }
                        ]
                    }
                },
                "Component_[14683172357422320098]": {
                    "$type": "EditorPendingCompositionComponent",
                    "Id": 14683172357422320098
                },
                "Component_[17725417882955088468]": {
                    "$type": "EditorVisibilityComponent",
                    "Id": 17725417882955088468
                },
                "Component_[18137081526964990739]": {
                    "$type": "EditorEntitySortComponent",
                    "Id": 18137081526964990739
                },
                "Component_[4143834181572741504]": {
                    "$type": "SelectionComponent",
                    "Id": 4143834181572741504
                },
                "Component_[441939574274344396]": {
                    "$type": "{27F1E1A1-8D9D-4C3B-BD3A-AFB9762449C0} TransformComponent",
                    "Id": 441939574274344396,
                    "Parent Entity": "Entity_[1578995783603]",
                    "Transform Data": {
                        "Translate": [
                            0.0,
                            0.0,
                            1.7000000476837158
                        ]
                    }
                }
            }
        },
        "Entity_[3202493421491]": {
            "Id": "Entity_[3202493421491]",
            "Name": "Light",
            "Components": {
                "Component_[12333063837679758147]": {
                    "$type": "{27F1E1A1-8D9D-4C3B-BD3A-AFB9762449C0} TransformComponent",
                    "Id": 12333063837679758147,
                    "Parent Entity": "Entity_[1583290750899]",
                    "Transform Data": {
                        "Translate": [
                            0.1004476547241211,
                            2.384185791015625e-7,
                            -0.20634090900421143
                        ],
                        "Rotate": [
                            -89.99995422363281,
                            -2.0925450325012207,
                            -2.1358583524033747e-7
                        ]
                    }
                },
                "Component_[12518003880378059481]": {
                    "$type": "EditorEntitySortComponent",
                    "Id": 12518003880378059481
                },
                "Component_[13163767816069546502]": {
                    "$type": "AZ::Render::EditorAreaLightComponent",
                    "Id": 13163767816069546502,
                    "Controller": {
                        "Configuration": {
                            "LightType": 2,
                            "AttenuationRadiusMode": 0,
                            "AttenuationRadius": 10.0,
                            "EnableShutters": true,
                            "InnerShutterAngleDegrees": 10.0,
                            "OuterShutterAngleDegrees": 15.0,
                            "Enable Shadow": true
                        }
                    }
                },
                "Component_[13296495017255734918]": {
                    "$type": "EditorDisabledCompositionComponent",
                    "Id": 13296495017255734918
                },
                "Component_[13319424248144104236]": {
                    "$type": "EditorLockComponent",
                    "Id": 13319424248144104236
                },
                "Component_[15799971397960499787]": {
                    "$type": "EditorVisibilityComponent",
                    "Id": 15799971397960499787
                },
                "Component_[16116388004548553378]": {
                    "$type": "EditorEntityIconComponent",
                    "Id": 16116388004548553378
                },
                "Component_[16175115725915677603]": {
                    "$type": "EditorInspectorComponent",
                    "Id": 16175115725915677603
                },
                "Component_[16355599692945798481]": {
                    "$type": "SelectionComponent",
                    "Id": 16355599692945798481
                },
                "Component_[16425560099883041240]": {
                    "$type": "EditorOnlyEntityComponent",
                    "Id": 16425560099883041240
                },
                "Component_[17465800303495989747]": {
                    "$type": "EditorPendingCompositionComponent",
                    "Id": 17465800303495989747
                },
                "Component_[5302087047241540172]": {
                    "$type": "EditorDiskShapeComponent",
                    "Id": 5302087047241540172,
                    "ShapeColor": [
                        1.0,
                        1.0,
                        1.0,
                        1.0
                    ],
                    "DiskShape": {
                        "Configuration": {
                            "Radius": 0.05000000074505806
                        }
                    }
                }
            }
        }
    }
}