{
    "ContainerEntity": {
        "Id": "Entity_[1146574390643]",
        "Name": "Level",
        "Components": {
            "Component_[10641544592923449938]": {
                "$type": "EditorInspectorComponent",
                "Id": 10641544592923449938
            },
            "Component_[12039882709170782873]": {
                "$type": "EditorOnlyEntityComponent",
                "Id": 12039882709170782873
            },
            "Component_[12265484671603697631]": {
                "$type": "EditorPendingCompositionComponent",
                "Id": 12265484671603697631
            },
            "Component_[14126657869720434043]": {
                "$type": "EditorEntitySortComponent",
                "Id": 14126657869720434043
            },
            "Component_[15230859088967841193]": {
                "$type": "{27F1E1A1-8D9D-4C3B-BD3A-AFB9762449C0} TransformComponent",
                "Id": 15230859088967841193,
                "Parent Entity": ""
            },
            "Component_[16239496886950819870]": {
                "$type": "EditorDisabledCompositionComponent",
                "Id": 16239496886950819870
            },
            "Component_[5688118765544765547]": {
                "$type": "EditorEntityIconComponent",
                "Id": 5688118765544765547
            },
            "Component_[6545738857812235305]": {
                "$type": "SelectionComponent",
                "Id": 6545738857812235305
            },
            "Component_[7247035804068349658]": {
                "$type": "EditorPrefabComponent",
                "Id": 7247035804068349658
            },
            "Component_[9307224322037797205]": {
                "$type": "EditorLockComponent",
                "Id": 9307224322037797205
            },
            "Component_[9562516168917670048]": {
                "$type": "EditorVisibilityComponent",
                "Id": 9562516168917670048
            }
        }
    },
    "Entities": {
        "Entity_[1155164325235]": {
            "Id": "Entity_[1155164325235]",
            "Name": "Sun",
            "Components": {
                "Component_[10440557478882592717]": {
                    "$type": "SelectionComponent",
                    "Id": 10440557478882592717
                },
                "Component_[13620450453324765907]": {
                    "$type": "EditorLockComponent",
                    "Id": 13620450453324765907
                },
                "Component_[2134313378593666258]": {
                    "$type": "EditorInspectorComponent",
                    "Id": 2134313378593666258
                },
                "Component_[234010807770404186]": {
                    "$type": "EditorVisibilityComponent",
                    "Id": 234010807770404186
                },
                "Component_[2970359110423865725]": {
                    "$type": "EditorEntityIconComponent",
                    "Id": 2970359110423865725
                },
                "Component_[3722854130373041803]": {
                    "$type": "EditorOnlyEntityComponent",
                    "Id": 3722854130373041803
                },
                "Component_[5992533738676323195]": {
                    "$type": "EditorDisabledCompositionComponent",
                    "Id": 5992533738676323195
                },
                "Component_[7378860763541895402]": {
                    "$type": "AZ::Render::EditorDirectionalLightComponent",
                    "Id": 7378860763541895402,
                    "Controller": {
                        "Configuration": {
                            "Intensity": 1.0,
                            "CameraEntityId": "",
                            "ShadowFilterMethod": 1
                        }
                    }
                },
                "Component_[7892834440890947578]": {
                    "$type": "{27F1E1A1-8D9D-4C3B-BD3A-AFB9762449C0} TransformComponent",
                    "Id": 7892834440890947578,
                    "Parent Entity": "Entity_[1176639161715]",
                    "Transform Data": {
                        "Translate": [
                            0.0,
                            0.0,
                            13.487043380737305
                        ],
                        "Rotate": [
                            -76.13099670410156,
                            -0.847000002861023,
                            -15.8100004196167
                        ]
                    }
                },
                "Component_[8599729549570828259]": {
                    "$type": "EditorEntitySortComponent",
                    "Id": 8599729549570828259
                },
                "Component_[952797371922080273]": {
                    "$type": "EditorPendingCompositionComponent",
                    "Id": 952797371922080273
                }
            }
        },
        "Entity_[1159459292531]": {
            "Id": "Entity_[1159459292531]",
            "Name": "Ground",
            "Components": {
                "Component_[11701138785793981042]": {
                    "$type": "SelectionComponent",
                    "Id": 11701138785793981042
                },
                "Component_[12260880513256986252]": {
                    "$type": "EditorEntityIconComponent",
                    "Id": 12260880513256986252
                },
                "Component_[13711420870643673468]": {
                    "$type": "EditorDisabledCompositionComponent",
                    "Id": 13711420870643673468
                },
                "Component_[138002849734991713]": {
                    "$type": "EditorOnlyEntityComponent",
                    "Id": 138002849734991713
                },
                "Component_[16578565737331764849]": {
                    "$type": "{27F1E1A1-8D9D-4C3B-BD3A-AFB9762449C0} TransformComponent",
                    "Id": 16578565737331764849,
                    "Parent Entity": "Entity_[1176639161715]"
                },
                "Component_[16919232076966545697]": {
                    "$type": "EditorInspectorComponent",
                    "Id": 16919232076966545697
                },
                "Component_[5182430712893438093]": {
                    "$type": "EditorMaterialComponent",
                    "Id": 5182430712893438093,
                    "materialSlots": [
                        {
                            "id": {
                                "materialSlotStableId": 803645540
                            }
                        },
                        {
                            "id": {
                                "materialSlotStableId": 803645540
                            }
                        },
                        {
                            "id": {
                                "materialSlotStableId": 803645540
                            }
                        },
                        {
                            "id": {
                                "materialSlotStableId": 803645540
                            }
                        },
                        {
                            "id": {
                                "materialSlotStableId": 803645540
                            }
                        },
                        {}
                    ],
                    "materialSlotsByLod": [
                        [
                            {
                                "id": {
                                    "lodIndex": 0,
                                    "materialSlotStableId": 803645540
                                }
                            }
                        ],
                        [
                            {
                                "id": {
                                    "lodIndex": 0,
                                    "materialSlotStableId": 803645540
                                }
                            }
                        ],
                        [
                            {
                                "id": {
                                    "lodIndex": 0,
                                    "materialSlotStableId": 803645540
                                }
                            }
                        ],
                        [
                            {
                                "id": {
                                    "lodIndex": 0,
                                    "materialSlotStableId": 803645540
                                }
                            }
                        ],
                        [
                            {
                                "id": {
                                    "lodIndex": 0,
                                    "materialSlotStableId": 803645540
                                }
                            }
                        ],
                        [
                            {
                                "id": {
                                    "lodIndex": 0
                                }
                            }
                        ]
                    ]
                },
                "Component_[5656195095490886116]": {
                    "$type": "EditorSurfaceDataMeshComponent",
                    "Id": 5656195095490886116,
                    "Configuration": {
                        "SurfaceTags": [
                            {
                                "SurfaceTagCrc": 3023709559
                            }
                        ]
                    }
                },
                "Component_[5675108321710651991]": {
                    "$type": "AZ::Render::EditorMeshComponent",
                    "Id": 5675108321710651991,
                    "Controller": {
                        "Configuration": {
                            "ModelAsset": {
                                "assetId": {
                                    "guid": "{0CD745C0-6AA8-569A-A68A-73A3270986C4}",
                                    "subId": 277889906
                                },
                                "assetHint": "objects/groudplane/groundplane_512x512m.azmodel"
                            }
                        }
                    }
                },
                "Component_[5681893399601237518]": {
                    "$type": "EditorEntitySortComponent",
                    "Id": 5681893399601237518
                },
                "Component_[592692962543397545]": {
                    "$type": "EditorPendingCompositionComponent",
                    "Id": 592692962543397545
                },
                "Component_[7090012899106946164]": {
                    "$type": "EditorLockComponent",
                    "Id": 7090012899106946164
                },
                "Component_[9410832619875640998]": {
                    "$type": "EditorVisibilityComponent",
                    "Id": 9410832619875640998
                }
            }
        },
        "Entity_[1168049227123]": {
            "Id": "Entity_[1168049227123]",
            "Name": "Grid",
            "Components": {
                "Component_[11443347433215807130]": {
                    "$type": "EditorEntityIconComponent",
                    "Id": 11443347433215807130
                },
                "Component_[11779275529534764488]": {
                    "$type": "SelectionComponent",
                    "Id": 11779275529534764488
                },
                "Component_[14249419413039427459]": {
                    "$type": "EditorInspectorComponent",
                    "Id": 14249419413039427459
                },
                "Component_[15448581635946161318]": {
                    "$type": "AZ::Render::EditorGridComponent",
                    "Id": 15448581635946161318,
                    "Controller": {
                        "Configuration": {
                            "primarySpacing": 4.0,
                            "primaryColor": [
                                0.501960813999176,
                                0.501960813999176,
                                0.501960813999176
                            ],
                            "secondarySpacing": 0.5,
                            "secondaryColor": [
                                0.250980406999588,
                                0.250980406999588,
                                0.250980406999588
                            ]
                        }
                    }
                },
                "Component_[1843303322527297409]": {
                    "$type": "EditorDisabledCompositionComponent",
                    "Id": 1843303322527297409
                },
                "Component_[380249072065273654]": {
                    "$type": "{27F1E1A1-8D9D-4C3B-BD3A-AFB9762449C0} TransformComponent",
                    "Id": 380249072065273654,
                    "Parent Entity": "Entity_[1176639161715]"
                },
                "Component_[7476660583684339787]": {
                    "$type": "EditorPendingCompositionComponent",
                    "Id": 7476660583684339787
                },
                "Component_[7557626501215118375]": {
                    "$type": "EditorEntitySortComponent",
                    "Id": 7557626501215118375
                },
                "Component_[7984048488947365511]": {
                    "$type": "EditorVisibilityComponent",
                    "Id": 7984048488947365511
                },
                "Component_[8118181039276487398]": {
                    "$type": "EditorOnlyEntityComponent",
                    "Id": 8118181039276487398
                },
                "Component_[9189909764215270515]": {
                    "$type": "EditorLockComponent",
                    "Id": 9189909764215270515
                }
            }
        },
        "Entity_[1172344194419]": {
            "Id": "Entity_[1172344194419]",
            "Name": "Shader Ball",
            "Components": {
                "Component_[10789351944715265527]": {
                    "$type": "EditorOnlyEntityComponent",
                    "Id": 10789351944715265527
                },
                "Component_[12037033284781049225]": {
                    "$type": "EditorEntitySortComponent",
                    "Id": 12037033284781049225
                },
                "Component_[13759153306105970079]": {
                    "$type": "EditorPendingCompositionComponent",
                    "Id": 13759153306105970079
                },
                "Component_[14135560884830586279]": {
                    "$type": "EditorInspectorComponent",
                    "Id": 14135560884830586279
                },
                "Component_[16247165675903986673]": {
                    "$type": "EditorVisibilityComponent",
                    "Id": 16247165675903986673
                },
                "Component_[18082433625958885247]": {
                    "$type": "EditorDisabledCompositionComponent",
                    "Id": 18082433625958885247
                },
                "Component_[6472623349872972660]": {
                    "$type": "{27F1E1A1-8D9D-4C3B-BD3A-AFB9762449C0} TransformComponent",
                    "Id": 6472623349872972660,
                    "Parent Entity": "Entity_[1176639161715]",
                    "Transform Data": {
                        "Rotate": [
                            0.0,
                            0.10000000149011612,
                            180.0
                        ]
                    }
                },
                "Component_[6495255223970673916]": {
                    "$type": "AZ::Render::EditorMeshComponent",
                    "Id": 6495255223970673916,
                    "Controller": {
                        "Configuration": {
                            "ModelAsset": {
                                "assetId": {
                                    "guid": "{FD340C30-755C-5911-92A3-19A3F7A77931}",
                                    "subId": 281415304
                                },
                                "assetHint": "objects/shaderball/shaderball_default_1m.azmodel"
                            }
                        }
                    }
                },
                "Component_[8056625192494070973]": {
                    "$type": "SelectionComponent",
                    "Id": 8056625192494070973
                },
                "Component_[8550141614185782969]": {
                    "$type": "EditorEntityIconComponent",
                    "Id": 8550141614185782969
                },
                "Component_[9439770997198325425]": {
                    "$type": "EditorLockComponent",
                    "Id": 9439770997198325425
                }
            }
        },
        "Entity_[1176639161715]": {
            "Id": "Entity_[1176639161715]",
            "Name": "Atom Default Environment",
            "Components": {
                "Component_[10757302973393310045]": {
                    "$type": "{27F1E1A1-8D9D-4C3B-BD3A-AFB9762449C0} TransformComponent",
                    "Id": 10757302973393310045,
                    "Parent Entity": "Entity_[1146574390643]"
                },
                "Component_[14505817420424255464]": {
                    "$type": "EditorInspectorComponent",
                    "Id": 14505817420424255464,
                    "ComponentOrderEntryArray": [
                        {
                            "ComponentId": 10757302973393310045
                        }
                    ]
                },
                "Component_[14988041764659020032]": {
                    "$type": "EditorLockComponent",
                    "Id": 14988041764659020032
                },
                "Component_[15808690248755038124]": {
                    "$type": "SelectionComponent",
                    "Id": 15808690248755038124
                },
                "Component_[15900837685796817138]": {
                    "$type": "EditorVisibilityComponent",
                    "Id": 15900837685796817138
                },
                "Component_[3298767348226484884]": {
                    "$type": "EditorOnlyEntityComponent",
                    "Id": 3298767348226484884
                },
                "Component_[4076975109609220594]": {
                    "$type": "EditorPendingCompositionComponent",
                    "Id": 4076975109609220594
                },
                "Component_[5679760548946028854]": {
                    "$type": "EditorDisabledCompositionComponent",
                    "Id": 5679760548946028854
                },
                "Component_[5855590796136709437]": {
                    "$type": "EditorEntitySortComponent",
                    "Id": 5855590796136709437,
                    "ChildEntityOrderEntryArray": [
                        {
                            "EntityId": "Entity_[1155164325235]"
                        },
                        {
                            "EntityId": "Entity_[1180934129011]",
                            "SortIndex": 1
                        },
                        {
                            "EntityId": "Entity_[1172344194419]",
                            "SortIndex": 2
                        },
                        {
                            "EntityId": "Entity_[1168049227123]",
                            "SortIndex": 3
                        },
                        {
                            "EntityId": "",
                            "SortIndex": 4
                        },
                        {
                            "EntityId": "Entity_[1159459292531]",
                            "SortIndex": 5
                        }
                    ]
                },
                "Component_[9277695270015777859]": {
                    "$type": "EditorEntityIconComponent",
                    "Id": 9277695270015777859
                }
            }
        },
        "Entity_[1180934129011]": {
            "Id": "Entity_[1180934129011]",
            "Name": "Global Sky",
            "Components": {
                "Component_[11231930600558681245]": {
                    "$type": "AZ::Render::EditorHDRiSkyboxComponent",
                    "Id": 11231930600558681245,
                    "Controller": {
                        "Configuration": {
                            "CubemapAsset": {
                                "assetId": {
                                    "guid": "{215E47FD-D181-5832-B1AB-91673ABF6399}",
                                    "subId": 1000
                                },
                                "assetHint": "lightingpresets/highcontrast/goegap_4k_skyboxcm.exr.streamingimage"
                            }
                        }
                    }
                },
                "Component_[11980494120202836095]": {
                    "$type": "SelectionComponent",
                    "Id": 11980494120202836095
                },
                "Component_[1428633914413949476]": {
                    "$type": "EditorLockComponent",
                    "Id": 1428633914413949476
                },
                "Component_[14936200426671614999]": {
                    "$type": "AZ::Render::EditorImageBasedLightComponent",
                    "Id": 14936200426671614999,
                    "Controller": {
                        "Configuration": {
                            "diffuseImageAsset": {
                                "assetId": {
                                    "guid": "{3FD09945-D0F2-55C8-B9AF-B2FD421FE3BE}",
                                    "subId": 3000
                                },
                                "assetHint": "lightingpresets/highcontrast/goegap_4k_iblglobalcm_ibldiffuse.exr.streamingimage"
                            },
                            "specularImageAsset": {
                                "assetId": {
                                    "guid": "{3FD09945-D0F2-55C8-B9AF-B2FD421FE3BE}",
                                    "subId": 2000
                                },
                                "assetHint": "lightingpresets/highcontrast/goegap_4k_iblglobalcm_iblspecular.exr.streamingimage"
                            }
                        }
                    }
                },
                "Component_[14994774102579326069]": {
                    "$type": "EditorDisabledCompositionComponent",
                    "Id": 14994774102579326069
                },
                "Component_[15417479889044493340]": {
                    "$type": "EditorPendingCompositionComponent",
                    "Id": 15417479889044493340
                },
                "Component_[15826613364991382688]": {
                    "$type": "EditorEntitySortComponent",
                    "Id": 15826613364991382688
                },
                "Component_[1665003113283562343]": {
                    "$type": "EditorOnlyEntityComponent",
                    "Id": 1665003113283562343
                },
                "Component_[3704934735944502280]": {
                    "$type": "EditorEntityIconComponent",
                    "Id": 3704934735944502280
                },
                "Component_[5698542331457326479]": {
                    "$type": "EditorVisibilityComponent",
                    "Id": 5698542331457326479
                },
                "Component_[6644513399057217122]": {
                    "$type": "{27F1E1A1-8D9D-4C3B-BD3A-AFB9762449C0} TransformComponent",
                    "Id": 6644513399057217122,
                    "Parent Entity": "Entity_[1176639161715]"
                },
                "Component_[931091830724002070]": {
                    "$type": "EditorInspectorComponent",
                    "Id": 931091830724002070
                }
            }
        },
        "Entity_[522786614218]": {
            "Id": "Entity_[522786614218]",
            "Name": "Entity4",
            "Components": {
                "Component_[10169075096423672327]": {
                    "$type": "GenericComponentWrapper",
                    "Id": 10169075096423672327,
                    "m_template": {
                        "$type": "UiCanvasAssetRefComponent",
                        "CanvasAssetRef": {
                            "AssetPath": "assets/canvasescanvas1.uicanvas"
                        },
                        "IsAutoLoad": true
                    }
                },
                "Component_[14750758208017869610]": {
                    "$type": "EditorPendingCompositionComponent",
                    "Id": 14750758208017869610
                },
                "Component_[16196861364159770125]": {
                    "$type": "EditorDisabledCompositionComponent",
                    "Id": 16196861364159770125
                },
                "Component_[1636995934992798077]": {
                    "$type": "EditorEntitySortComponent",
                    "Id": 1636995934992798077
                },
                "Component_[16556255559085447847]": {
                    "$type": "EditorLockComponent",
                    "Id": 16556255559085447847
                },
                "Component_[16778561307089317516]": {
                    "$type": "EditorEntityIconComponent",
                    "Id": 16778561307089317516
                },
                "Component_[2032004189292034421]": {
                    "$type": "EditorOnlyEntityComponent",
                    "Id": 2032004189292034421
                },
                "Component_[4931097211907196820]": {
                    "$type": "EditorInspectorComponent",
                    "Id": 4931097211907196820
                },
                "Component_[6094154467357864974]": {
                    "$type": "SelectionComponent",
                    "Id": 6094154467357864974
                },
                "Component_[6933874871111092713]": {
                    "$type": "{27F1E1A1-8D9D-4C3B-BD3A-AFB9762449C0} TransformComponent",
                    "Id": 6933874871111092713,
                    "Parent Entity": "Entity_[1146574390643]",
                    "Transform Data": {
                        "Translate": [
                            -3.0005569458007813,
                            -0.1804180145263672,
                            -0.02001667022705078
                        ]
                    }
                },
                "Component_[9750948017781984768]": {
                    "$type": "EditorVisibilityComponent",
                    "Id": 9750948017781984768
                }
            }
        },
        "Entity_[917127627358]": {
            "Id": "Entity_[917127627358]",
            "Name": "VegetationSpawner",
            "Components": {
                "Component_[14357510586564572170]": {
                    "$type": "EditorInspectorComponent",
                    "Id": 14357510586564572170
                },
                "Component_[14537404391990006867]": {
                    "$type": "EditorEntityIconComponent",
                    "Id": 14537404391990006867
                },
                "Component_[1624556346965679242]": {
                    "$type": "EditorVisibilityComponent",
                    "Id": 1624556346965679242
                },
                "Component_[16464031968363083114]": {
                    "$type": "EditorLockComponent",
                    "Id": 16464031968363083114
                },
                "Component_[17361480089830310227]": {
                    "$type": "EditorDisabledCompositionComponent",
                    "Id": 17361480089830310227
                },
                "Component_[320469077557753921]": {
                    "$type": "EditorOnlyEntityComponent",
                    "Id": 320469077557753921
                },
                "Component_[5511954166367188907]": {
                    "$type": "EditorPendingCompositionComponent",
                    "Id": 5511954166367188907
                },
                "Component_[601856132141608121]": {
                    "$type": "EditorDescriptorListComponent",
                    "Id": 601856132141608121,
                    "Configuration": {
                        "Descriptors": [
                            {
                                "SpawnerType": "{74BEEDB5-81CF-409F-B375-0D93D81EF2E3}",
                                "InstanceSpawner": {
                                    "$type": "PrefabInstanceSpawner",
                                    "SpawnableAsset": {
                                        "assetId": {
                                            "guid": "{865393B8-931E-593A-A85F-AABE32DDA159}",
                                            "subId": 1748124621
                                        },
                                        "assetHint": "prefabs/mytree.spawnable"
                                    }
                                }
                            }
                        ]
                    }
                },
                "Component_[6123783108002327910]": {
                    "$type": "SelectionComponent",
                    "Id": 6123783108002327910
                },
                "Component_[6455404615782315653]": {
                    "$type": "EditorBoxShapeComponent",
                    "Id": 6455404615782315653,
                    "BoxShape": {
                        "Configuration": {
                            "Dimensions": [
                                16.260433197021484,
                                17.24449920654297,
                                1.0
                            ]
                        }
                    }
                },
                "Component_[6475505457154160376]": {
                    "$type": "{27F1E1A1-8D9D-4C3B-BD3A-AFB9762449C0} TransformComponent",
                    "Id": 6475505457154160376,
                    "Parent Entity": "Entity_[1146574390643]",
                    "Transform Data": {
                        "Translate": [
                            -14.908735275268555,
                            2.081684112548828,
                            -0.03599214553833008
                        ]
                    }
                },
                "Component_[7087084989944245778]": {
                    "$type": "{DD96FD51-A86B-48BC-A6AB-89183B538269} EditorSpawnerComponent",
                    "Id": 7087084989944245778,
                    "PreviewEntity": "Entity_[917127627358]"
                },
                "Component_[8769476617355515026]": {
                    "$type": "EditorEntitySortComponent",
                    "Id": 8769476617355515026
                }
            }
        }
    },
    "Instances": {
        "Instance_[375961748062]": {
            "Source": "Prefabs/MyTree.prefab",
            "Patches": [
                {
                    "op": "replace",
                    "path": "/ContainerEntity/Components/Component_[5210489627525304570]/Parent Entity",
                    "value": "../Entity_[1146574390643]"
                },
                {
                    "op": "replace",
                    "path": "/ContainerEntity/Components/Component_[5210489627525304570]/Transform Data/Translate/0",
                    "value": 4.449127674102783
                },
                {
                    "op": "replace",
                    "path": "/ContainerEntity/Components/Component_[5210489627525304570]/Transform Data/Translate/1",
                    "value": 11.695310592651367
                },
                {
                    "op": "remove",
                    "path": "/LinkId"
                }
            ]
        }
    }
}