{
    "ContainerEntity": {
        "Id": "ContainerEntity",
        "Name": "treeM",
        "Components": {
            "Component_[12269044269883541340]": {
                "$type": "EditorDisabledCompositionComponent",
                "Id": 12269044269883541340
            },
            "Component_[12585997783525512570]": {
                "$type": "SelectionComponent",
                "Id": 12585997783525512570
            },
            "Component_[17453154152618309433]": {
                "$type": "EditorVisibilityComponent",
                "Id": 17453154152618309433
            },
            "Component_[17955322774977643204]": {
                "$type": "EditorPrefabComponent",
                "Id": 17955322774977643204
            },
            "Component_[3917794297195312596]": {
                "$type": "EditorEntityIconComponent",
                "Id": 3917794297195312596
            },
            "Component_[445966300349501281]": {
                "$type": "EditorPendingCompositionComponent",
                "Id": 445966300349501281
            },
            "Component_[465502840310059852]": {
                "$type": "EditorEntitySortComponent",
                "Id": 465502840310059852
            },
            "Component_[5272231556415317602]": {
                "$type": "EditorLockComponent",
                "Id": 5272231556415317602
            },
            "Component_[7605790096366078517]": {
                "$type": "EditorOnlyEntityComponent",
                "Id": 7605790096366078517
            },
            "Component_[8370636608019003608]": {
                "$type": "EditorInspectorComponent",
                "Id": 8370636608019003608
            },
            "Component_[9224444247010691921]": {
                "$type": "{27F1E1A1-8D9D-4C3B-BD3A-AFB9762449C0} TransformComponent",
                "Id": 9224444247010691921,
                "Parent Entity": ""
            }
        }
    },
    "Entities": {
        "Entity_[135182918924903]": {
            "Id": "Entity_[135182918924903]",
            "Name": "trunkm",
            "Components": {
                "Component_[10023937944464451840]": {
                    "$type": "EditorMaterialComponent",
                    "Id": 10023937944464451840,
                    "Controller": {
                        "Configuration": {
                            "materials": [
                                {
                                    "Key": {
                                        "materialSlotStableId": 120349028
                                    },
                                    "Value": {
                                        "MaterialAsset": {
                                            "assetId": {
                                                "guid": "{C525B60F-1941-58E3-9CF0-0D7E51EFDB60}"
                                            },
                                            "assetHint": "assets/materials/tree/trunk.azmaterial"
                                        }
                                    }
                                }
                            ]
                        }
                    },
                    "materialSlots": [
                        {
                            "id": {
                                "materialSlotStableId": 120349028
                            },
                            "materialAsset": {
                                "assetId": {
                                    "guid": "{C525B60F-1941-58E3-9CF0-0D7E51EFDB60}"
                                },
                                "assetHint": "assets/materials/tree/trunk.azmaterial"
                            }
                        }
                    ],
                    "materialSlotsByLod": [
                        [
                            {
                                "id": {
                                    "lodIndex": 0,
                                    "materialSlotStableId": 120349028
                                }
                            }
                        ]
                    ]
                },
                "Component_[1136885484758311585]": {
                    "$type": "EditorDisabledCompositionComponent",
                    "Id": 1136885484758311585
                },
                "Component_[12438113481571546761]": {
                    "$type": "EditorLockComponent",
                    "Id": 12438113481571546761
                },
                "Component_[15558804168459648234]": {
                    "$type": "EditorVisibilityComponent",
                    "Id": 15558804168459648234
                },
                "Component_[15814502975326382995]": {
                    "$type": "AZ::Render::EditorMeshComponent",
                    "Id": 15814502975326382995,
                    "Controller": {
                        "Configuration": {
                            "ModelAsset": {
                                "assetId": {
                                    "guid": "{2B0D14D1-91A8-5229-8484-25953DE90936}",
                                    "subId": 281101526
                                },
                                "assetHint": "assets/models/tree/trunkm.azmodel"
                            }
                        }
                    }
                },
                "Component_[18042506273693612189]": {
                    "$type": "EditorInspectorComponent",
                    "Id": 18042506273693612189,
                    "ComponentOrderEntryArray": [
                        {
                            "ComponentId": 7929212018659478190
                        },
                        {
                            "ComponentId": 15814502975326382995,
                            "SortIndex": 1
                        },
                        {
                            "ComponentId": 10023937944464451840,
                            "SortIndex": 2
                        }
                    ]
                },
                "Component_[2330411760687797166]": {
                    "$type": "EditorEntityIconComponent",
                    "Id": 2330411760687797166
                },
                "Component_[3532433342739562705]": {
                    "$type": "EditorPendingCompositionComponent",
                    "Id": 3532433342739562705
                },
                "Component_[7580964918355936249]": {
                    "$type": "SelectionComponent",
                    "Id": 7580964918355936249
                },
                "Component_[7632868267623879348]": {
                    "$type": "EditorEntitySortComponent",
                    "Id": 7632868267623879348,
                    "ChildEntityOrderEntryArray": [
                        {
                            "EntityId": "Entity_[135187213892199]"
                        }
                    ]
                },
                "Component_[7929212018659478190]": {
                    "$type": "{27F1E1A1-8D9D-4C3B-BD3A-AFB9762449C0} TransformComponent",
                    "Id": 7929212018659478190,
                    "Parent Entity": "ContainerEntity",
                    "Transform Data": {
                        "UniformScale": 1.5
                    }
                },
                "Component_[9915694637157917491]": {
                    "$type": "EditorOnlyEntityComponent",
                    "Id": 9915694637157917491
                }
            }
        },
        "Entity_[135187213892199]": {
            "Id": "Entity_[135187213892199]",
            "Name": "leavesm",
            "Components": {
                "Component_[12416009233998481908]": {
                    "$type": "EditorEntityIconComponent",
                    "Id": 12416009233998481908
                },
                "Component_[13519275179188277603]": {
                    "$type": "EditorVisibilityComponent",
                    "Id": 13519275179188277603
                },
                "Component_[14859839485438487655]": {
                    "$type": "EditorPendingCompositionComponent",
                    "Id": 14859839485438487655
                },
                "Component_[15196381139078006239]": {
                    "$type": "AZ::Render::EditorMeshComponent",
                    "Id": 15196381139078006239,
                    "Controller": {
                        "Configuration": {
                            "ModelAsset": {
                                "assetId": {
                                    "guid": "{A08575ED-078C-5F8C-B213-8165A252FF40}",
                                    "subId": 273217696
                                },
                                "assetHint": "assets/models/tree/leavesm.azmodel"
                            }
                        }
                    }
                },
                "Component_[16007955923240251004]": {
                    "$type": "EditorMaterialComponent",
                    "Id": 16007955923240251004,
                    "Controller": {
                        "Configuration": {
                            "materials": [
                                {
                                    "Key": {
                                        "materialSlotStableId": 1946619454
                                    },
                                    "Value": {
                                        "MaterialAsset": {
                                            "assetId": {
                                                "guid": "{C27232FC-8E8E-5C9B-A595-F62C3B214C46}"
                                            },
                                            "assetHint": "assets/materials/tree/leaves.azmaterial"
                                        }
                                    }
                                }
                            ]
                        }
                    },
                    "materialSlots": [
                        {
                            "id": {
                                "materialSlotStableId": 1946619454
                            },
                            "materialAsset": {
                                "assetId": {
                                    "guid": "{C27232FC-8E8E-5C9B-A595-F62C3B214C46}"
                                },
                                "assetHint": "assets/materials/tree/leaves.azmaterial"
                            }
                        }
                    ],
                    "materialSlotsByLod": [
                        [
                            {
                                "id": {
                                    "lodIndex": 0,
                                    "materialSlotStableId": 1946619454
                                }
                            }
                        ]
                    ]
                },
                "Component_[16520419152014568700]": {
                    "$type": "EditorOnlyEntityComponent",
                    "Id": 16520419152014568700
                },
                "Component_[2616348517556818261]": {
                    "$type": "{27F1E1A1-8D9D-4C3B-BD3A-AFB9762449C0} TransformComponent",
                    "Id": 2616348517556818261,
                    "Parent Entity": "Entity_[135182918924903]"
                },
                "Component_[4167114764663057567]": {
                    "$type": "EditorEntitySortComponent",
                    "Id": 4167114764663057567
                },
                "Component_[5563338151233148360]": {
                    "$type": "EditorDisabledCompositionComponent",
                    "Id": 5563338151233148360
                },
                "Component_[5661059021048494043]": {
                    "$type": "SelectionComponent",
                    "Id": 5661059021048494043
                },
                "Component_[6407906253267550212]": {
                    "$type": "EditorLockComponent",
                    "Id": 6407906253267550212
                },
                "Component_[9014465326263823860]": {
                    "$type": "EditorInspectorComponent",
                    "Id": 9014465326263823860
                }
            }
        }
    }
}